C:\Users\RB051125\git\DemoCRUD\src\com\cerner\dao\StudentDao.java
C:\Users\RB051125\git\DemoCRUD\src\com\cerner\constants\DBConstants.java
C:\Users\RB051125\git\DemoCRUD\src\com\cerner\utils\ResultSetToJSON.java
C:\Users\RB051125\git\DemoCRUD\src\com\cerner\utils\JSONParse.java
C:\Users\RB051125\git\DemoCRUD\src\com\cerner\dao\DBConnection.java
C:\Users\RB051125\git\DemoCRUD\src\com\cerner\controller\CreateWebService.java
C:\Users\RB051125\git\DemoCRUD\src\com\cerner\controller\UpdateWebService.java
C:\Users\RB051125\git\DemoCRUD\src\com\cerner\service\StudentService.java
C:\Users\RB051125\git\DemoCRUD\src\com\cerner\controller\ReadWebService.java
C:\Users\RB051125\git\DemoCRUD\src\com\cerner\controller\DeleteWebService.java
C:\Users\RB051125\git\DemoCRUD\src\com\cerner\dao\IDBConnection.java
